uart/simulation/qsim/UART.msim.vcd
$comment
	File created using the following command:
		vcd file UART.msim.vcd -direction
$end
$date
	Sun Oct 10 14:58:49 2021
$end
$version
	ModelSim Version 10.1d
$end
$timescale
	1ps
$end
$scope module UART_vlg_vec_tst $end
$var reg 8 ! JUMPER [7:0] $end
$var reg 1 " QUARZ $end
$var wire 1 # ENA $end
$var wire 1 $ MUX_ADD [3] $end
$var wire 1 % MUX_ADD [2] $end
$var wire 1 & MUX_ADD [1] $end
$var wire 1 ' MUX_ADD [0] $end
$var wire 1 ( PRLL_OUT [7] $end
$var wire 1 ) PRLL_OUT [6] $end
$var wire 1 * PRLL_OUT [5] $end
$var wire 1 + PRLL_OUT [4] $end
$var wire 1 , PRLL_OUT [3] $end
$var wire 1 - PRLL_OUT [2] $end
$var wire 1 . PRLL_OUT [1] $end
$var wire 1 / PRLL_OUT [0] $end
$var wire 1 0 REG_OUT [10] $end
$var wire 1 1 REG_OUT [9] $end
$var wire 1 2 REG_OUT [8] $end
$var wire 1 3 REG_OUT [7] $end
$var wire 1 4 REG_OUT [6] $end
$var wire 1 5 REG_OUT [5] $end
$var wire 1 6 REG_OUT [4] $end
$var wire 1 7 REG_OUT [3] $end
$var wire 1 8 REG_OUT [2] $end
$var wire 1 9 REG_OUT [1] $end
$var wire 1 : REG_OUT [0] $end
$var wire 1 ; RX_ENA $end
$var wire 1 < SCK $end
$var wire 1 = TX $end
$var wire 1 > sampler $end
$scope module i1 $end
$var wire 1 ? gnd $end
$var wire 1 @ vcc $end
$var wire 1 A unknown $end
$var tri1 1 B devclrn $end
$var tri1 1 C devpor $end
$var tri1 1 D devoe $end
$var wire 1 E inst|LPM_COUNTER_component|auto_generated|counter_comb_bita1~combout $end
$var wire 1 F inst|LPM_COUNTER_component|auto_generated|counter_comb_bita6~combout $end
$var wire 1 G inst|LPM_COUNTER_component|auto_generated|counter_comb_bita8~combout $end
$var wire 1 H inst|LPM_COUNTER_component|auto_generated|counter_comb_bita10~combout $end
$var wire 1 I inst8|LPM_COUNTER_component|auto_generated|counter_comb_bita0~combout $end
$var wire 1 J inst8|LPM_COUNTER_component|auto_generated|counter_comb_bita0~COUT $end
$var wire 1 K inst8|LPM_COUNTER_component|auto_generated|counter_comb_bita1~combout $end
$var wire 1 L inst8|LPM_COUNTER_component|auto_generated|counter_comb_bita1~COUT $end
$var wire 1 M inst8|LPM_COUNTER_component|auto_generated|counter_comb_bita2~combout $end
$var wire 1 N inst8|LPM_COUNTER_component|auto_generated|counter_comb_bita2~COUT $end
$var wire 1 O inst8|LPM_COUNTER_component|auto_generated|counter_comb_bita3~combout $end
$var wire 1 P inst8|LPM_COUNTER_component|auto_generated|counter_comb_bita3~COUT $end
$var wire 1 Q inst8|LPM_COUNTER_component|auto_generated|counter_comb_bita4~combout $end
$var wire 1 R inst8|LPM_COUNTER_component|auto_generated|counter_comb_bita4~COUT $end
$var wire 1 S inst8|LPM_COUNTER_component|auto_generated|counter_comb_bita5~combout $end
$var wire 1 T inst8|LPM_COUNTER_component|auto_generated|counter_comb_bita5~COUT $end
$var wire 1 U inst8|LPM_COUNTER_component|auto_generated|counter_comb_bita6~combout $end
$var wire 1 V inst8|LPM_COUNTER_component|auto_generated|counter_comb_bita6~COUT $end
$var wire 1 W inst8|LPM_COUNTER_component|auto_generated|counter_comb_bita7~combout $end
$var wire 1 X inst8|LPM_COUNTER_component|auto_generated|counter_comb_bita7~COUT $end
$var wire 1 Y inst8|LPM_COUNTER_component|auto_generated|counter_comb_bita8~combout $end
$var wire 1 Z inst8|LPM_COUNTER_component|auto_generated|counter_comb_bita8~COUT $end
$var wire 1 [ inst8|LPM_COUNTER_component|auto_generated|counter_comb_bita9~combout $end
$var wire 1 \ inst8|LPM_COUNTER_component|auto_generated|counter_comb_bita9~COUT $end
$var wire 1 ] inst8|LPM_COUNTER_component|auto_generated|counter_comb_bita9~0_combout $end
$var wire 1 ^ inst12|LPM_COUNTER_component|auto_generated|counter_comb_bita4~combout $end
$var wire 1 _ inst38~1_combout $end
$var wire 1 ` inst|LPM_COUNTER_component|auto_generated|cmpr2|aneb_result_wire[0]~1_combout $end
$var wire 1 a inst8|LPM_COUNTER_component|auto_generated|cmpr2|aneb_result_wire[0]~0_combout $end
$var wire 1 b inst8|LPM_COUNTER_component|auto_generated|cmpr2|aneb_result_wire[0]~1_combout $end
$var wire 1 c inst8|LPM_COUNTER_component|auto_generated|cmpr2|aneb_result_wire[0]~2_combout $end
$var wire 1 d inst8|LPM_COUNTER_component|auto_generated|cout_actual~combout $end
$var wire 1 e inst12|LPM_COUNTER_component|auto_generated|cmpr2|aneb_result_wire[0]~0_combout $end
$var wire 1 f QUARZ~combout $end
$var wire 1 g inst|LPM_COUNTER_component|auto_generated|counter_comb_bita0~combout $end
$var wire 1 h ~GND~combout $end
$var wire 1 i inst|LPM_COUNTER_component|auto_generated|counter_comb_bita0~COUT $end
$var wire 1 j inst|LPM_COUNTER_component|auto_generated|counter_comb_bita1~COUT $end
$var wire 1 k inst|LPM_COUNTER_component|auto_generated|counter_comb_bita2~combout $end
$var wire 1 l inst|LPM_COUNTER_component|auto_generated|counter_comb_bita2~COUT $end
$var wire 1 m inst|LPM_COUNTER_component|auto_generated|counter_comb_bita3~COUT $end
$var wire 1 n inst|LPM_COUNTER_component|auto_generated|counter_comb_bita4~COUT $end
$var wire 1 o inst|LPM_COUNTER_component|auto_generated|counter_comb_bita5~combout $end
$var wire 1 p inst|LPM_COUNTER_component|auto_generated|counter_comb_bita5~COUT $end
$var wire 1 q inst|LPM_COUNTER_component|auto_generated|counter_comb_bita6~COUT $end
$var wire 1 r inst|LPM_COUNTER_component|auto_generated|counter_comb_bita7~combout $end
$var wire 1 s inst|LPM_COUNTER_component|auto_generated|counter_comb_bita7~COUT $end
$var wire 1 t inst|LPM_COUNTER_component|auto_generated|counter_comb_bita8~COUT $end
$var wire 1 u inst|LPM_COUNTER_component|auto_generated|counter_comb_bita9~combout $end
$var wire 1 v inst|LPM_COUNTER_component|auto_generated|counter_comb_bita9~COUT $end
$var wire 1 w inst|LPM_COUNTER_component|auto_generated|counter_comb_bita10~COUT $end
$var wire 1 x inst|LPM_COUNTER_component|auto_generated|counter_comb_bita11~combout $end
$var wire 1 y inst|LPM_COUNTER_component|auto_generated|counter_comb_bita11~COUT $end
$var wire 1 z inst|LPM_COUNTER_component|auto_generated|counter_comb_bita12~combout $end
$var wire 1 { inst|LPM_COUNTER_component|auto_generated|cmpr2|aneb_result_wire[0]~0_combout $end
$var wire 1 | inst|LPM_COUNTER_component|auto_generated|counter_comb_bita3~combout $end
$var wire 1 } inst|LPM_COUNTER_component|auto_generated|counter_comb_bita4~combout $end
$var wire 1 ~ inst|LPM_COUNTER_component|auto_generated|cmpr2|aneb_result_wire[0]~2_combout $end
$var wire 1 !! inst|LPM_COUNTER_component|auto_generated|cmpr2|aneb_result_wire[0]~3_combout $end
$var wire 1 "! inst|LPM_COUNTER_component|auto_generated|counter_comb_bita12~COUT $end
$var wire 1 #! inst|LPM_COUNTER_component|auto_generated|counter_comb_bita12~0_combout $end
$var wire 1 $! inst|LPM_COUNTER_component|auto_generated|cout_actual~combout $end
$var wire 1 %! inst2~0_combout $end
$var wire 1 &! inst2~regout $end
$var wire 1 '! inst5|LPM_COUNTER_component|auto_generated|counter_comb_bita0~combout $end
$var wire 1 (! inst5|LPM_COUNTER_component|auto_generated|counter_comb_bita2~COUT $end
$var wire 1 )! inst5|LPM_COUNTER_component|auto_generated|counter_comb_bita3~combout $end
$var wire 1 *! inst9~0_combout $end
$var wire 1 +! inst9~regout $end
$var wire 1 ,! inst5|LPM_COUNTER_component|auto_generated|cmpr2|aneb_result_wire[0]~0_combout $end
$var wire 1 -! inst5|LPM_COUNTER_component|auto_generated|counter_comb_bita3~COUT $end
$var wire 1 .! inst5|LPM_COUNTER_component|auto_generated|counter_comb_bita3~0_combout $end
$var wire 1 /! inst5|LPM_COUNTER_component|auto_generated|cout_actual~combout $end
$var wire 1 0! inst5|LPM_COUNTER_component|auto_generated|counter_comb_bita0~COUT $end
$var wire 1 1! inst5|LPM_COUNTER_component|auto_generated|counter_comb_bita1~combout $end
$var wire 1 2! inst5|LPM_COUNTER_component|auto_generated|counter_comb_bita1~COUT $end
$var wire 1 3! inst5|LPM_COUNTER_component|auto_generated|counter_comb_bita2~combout $end
$var wire 1 4! inst7|LPM_MUX_component|auto_generated|_~0_combout $end
$var wire 1 5! inst7|LPM_MUX_component|auto_generated|_~1_combout $end
$var wire 1 6! inst6~0_combout $end
$var wire 1 7! inst7|LPM_MUX_component|auto_generated|_~6_combout $end
$var wire 1 8! inst7|LPM_MUX_component|auto_generated|_~5_combout $end
$var wire 1 9! inst7|LPM_MUX_component|auto_generated|_~7_combout $end
$var wire 1 :! inst24|inst17~0_combout $end
$var wire 1 ;! inst24|inst17~1_combout $end
$var wire 1 <! inst24|inst17~combout $end
$var wire 1 =! inst7|LPM_MUX_component|auto_generated|_~2_combout $end
$var wire 1 >! inst7|LPM_MUX_component|auto_generated|_~3_combout $end
$var wire 1 ?! inst7|LPM_MUX_component|auto_generated|_~4_combout $end
$var wire 1 @! inst7|LPM_MUX_component|auto_generated|_~8_combout $end
$var wire 1 A! inst6~combout $end
$var wire 1 B! inst18~feeder_combout $end
$var wire 1 C! inst11~0_combout $end
$var wire 1 D! inst11~regout $end
$var wire 1 E! inst11~clkctrl_outclk $end
$var wire 1 F! inst18~regout $end
$var wire 1 G! inst20|LPM_SHIFTREG_component|dffs[1]~feeder_combout $end
$var wire 1 H! inst20|LPM_SHIFTREG_component|dffs[2]~feeder_combout $end
$var wire 1 I! inst12|LPM_COUNTER_component|auto_generated|counter_comb_bita0~combout $end
$var wire 1 J! inst12|LPM_COUNTER_component|auto_generated|counter_comb_bita0~COUT $end
$var wire 1 K! inst12|LPM_COUNTER_component|auto_generated|counter_comb_bita1~combout $end
$var wire 1 L! inst12|LPM_COUNTER_component|auto_generated|counter_comb_bita1~COUT $end
$var wire 1 M! inst12|LPM_COUNTER_component|auto_generated|counter_comb_bita2~COUT $end
$var wire 1 N! inst12|LPM_COUNTER_component|auto_generated|counter_comb_bita3~combout $end
$var wire 1 O! inst12|LPM_COUNTER_component|auto_generated|counter_comb_bita3~COUT $end
$var wire 1 P! inst12|LPM_COUNTER_component|auto_generated|counter_comb_bita4~COUT $end
$var wire 1 Q! inst12|LPM_COUNTER_component|auto_generated|counter_comb_bita5~COUT $end
$var wire 1 R! inst12|LPM_COUNTER_component|auto_generated|counter_comb_bita6~combout $end
$var wire 1 S! inst12|LPM_COUNTER_component|auto_generated|counter_comb_bita6~COUT $end
$var wire 1 T! inst12|LPM_COUNTER_component|auto_generated|counter_comb_bita7~COUT $end
$var wire 1 U! inst12|LPM_COUNTER_component|auto_generated|counter_comb_bita8~combout $end
$var wire 1 V! inst12|LPM_COUNTER_component|auto_generated|counter_comb_bita7~combout $end
$var wire 1 W! inst43~0_combout $end
$var wire 1 X! inst12|LPM_COUNTER_component|auto_generated|counter_comb_bita8~COUT $end
$var wire 1 Y! inst12|LPM_COUNTER_component|auto_generated|counter_comb_bita9~combout $end
$var wire 1 Z! inst12|LPM_COUNTER_component|auto_generated|counter_comb_bita9~COUT $end
$var wire 1 [! inst12|LPM_COUNTER_component|auto_generated|counter_comb_bita9~0_combout $end
$var wire 1 \! inst12|LPM_COUNTER_component|auto_generated|cout_actual~combout $end
$var wire 1 ]! inst12|LPM_COUNTER_component|auto_generated|counter_comb_bita5~combout $end
$var wire 1 ^! inst12|LPM_COUNTER_component|auto_generated|counter_comb_bita2~combout $end
$var wire 1 _! inst43~1_combout $end
$var wire 1 `! inst43~2_combout $end
$var wire 1 a! inst43~combout $end
$var wire 1 b! inst20|LPM_SHIFTREG_component|dffs[6]~feeder_combout $end
$var wire 1 c! inst20|LPM_SHIFTREG_component|dffs[7]~feeder_combout $end
$var wire 1 d! inst38~0_combout $end
$var wire 1 e! inst38~2_combout $end
$var wire 1 f! inst1|LPM_SHIFTREG_component|dffs[4]~feeder_combout $end
$var wire 1 g! inst2~clkctrl_outclk $end
$var wire 1 h! inst12|LPM_COUNTER_component|auto_generated|safe_q [9] $end
$var wire 1 i! inst12|LPM_COUNTER_component|auto_generated|safe_q [8] $end
$var wire 1 j! inst12|LPM_COUNTER_component|auto_generated|safe_q [7] $end
$var wire 1 k! inst12|LPM_COUNTER_component|auto_generated|safe_q [6] $end
$var wire 1 l! inst12|LPM_COUNTER_component|auto_generated|safe_q [5] $end
$var wire 1 m! inst12|LPM_COUNTER_component|auto_generated|safe_q [4] $end
$var wire 1 n! inst12|LPM_COUNTER_component|auto_generated|safe_q [3] $end
$var wire 1 o! inst12|LPM_COUNTER_component|auto_generated|safe_q [2] $end
$var wire 1 p! inst12|LPM_COUNTER_component|auto_generated|safe_q [1] $end
$var wire 1 q! inst12|LPM_COUNTER_component|auto_generated|safe_q [0] $end
$var wire 1 r! inst|LPM_COUNTER_component|auto_generated|safe_q [12] $end
$var wire 1 s! inst|LPM_COUNTER_component|auto_generated|safe_q [11] $end
$var wire 1 t! inst|LPM_COUNTER_component|auto_generated|safe_q [10] $end
$var wire 1 u! inst|LPM_COUNTER_component|auto_generated|safe_q [9] $end
$var wire 1 v! inst|LPM_COUNTER_component|auto_generated|safe_q [8] $end
$var wire 1 w! inst|LPM_COUNTER_component|auto_generated|safe_q [7] $end
$var wire 1 x! inst|LPM_COUNTER_component|auto_generated|safe_q [6] $end
$var wire 1 y! inst|LPM_COUNTER_component|auto_generated|safe_q [5] $end
$var wire 1 z! inst|LPM_COUNTER_component|auto_generated|safe_q [4] $end
$var wire 1 {! inst|LPM_COUNTER_component|auto_generated|safe_q [3] $end
$var wire 1 |! inst|LPM_COUNTER_component|auto_generated|safe_q [2] $end
$var wire 1 }! inst|LPM_COUNTER_component|auto_generated|safe_q [1] $end
$var wire 1 ~! inst|LPM_COUNTER_component|auto_generated|safe_q [0] $end
$var wire 1 !" inst20|LPM_SHIFTREG_component|dffs [10] $end
$var wire 1 "" inst20|LPM_SHIFTREG_component|dffs [9] $end
$var wire 1 #" inst20|LPM_SHIFTREG_component|dffs [8] $end
$var wire 1 $" inst20|LPM_SHIFTREG_component|dffs [7] $end
$var wire 1 %" inst20|LPM_SHIFTREG_component|dffs [6] $end
$var wire 1 &" inst20|LPM_SHIFTREG_component|dffs [5] $end
$var wire 1 '" inst20|LPM_SHIFTREG_component|dffs [4] $end
$var wire 1 (" inst20|LPM_SHIFTREG_component|dffs [3] $end
$var wire 1 )" inst20|LPM_SHIFTREG_component|dffs [2] $end
$var wire 1 *" inst20|LPM_SHIFTREG_component|dffs [1] $end
$var wire 1 +" inst20|LPM_SHIFTREG_component|dffs [0] $end
$var wire 1 ," JUMPER~combout [7] $end
$var wire 1 -" JUMPER~combout [6] $end
$var wire 1 ." JUMPER~combout [5] $end
$var wire 1 /" JUMPER~combout [4] $end
$var wire 1 0" JUMPER~combout [3] $end
$var wire 1 1" JUMPER~combout [2] $end
$var wire 1 2" JUMPER~combout [1] $end
$var wire 1 3" JUMPER~combout [0] $end
$var wire 1 4" inst5|LPM_COUNTER_component|auto_generated|safe_q [3] $end
$var wire 1 5" inst5|LPM_COUNTER_component|auto_generated|safe_q [2] $end
$var wire 1 6" inst5|LPM_COUNTER_component|auto_generated|safe_q [1] $end
$var wire 1 7" inst5|LPM_COUNTER_component|auto_generated|safe_q [0] $end
$var wire 1 8" inst1|LPM_SHIFTREG_component|dffs [7] $end
$var wire 1 9" inst1|LPM_SHIFTREG_component|dffs [6] $end
$var wire 1 :" inst1|LPM_SHIFTREG_component|dffs [5] $end
$var wire 1 ;" inst1|LPM_SHIFTREG_component|dffs [4] $end
$var wire 1 <" inst1|LPM_SHIFTREG_component|dffs [3] $end
$var wire 1 =" inst1|LPM_SHIFTREG_component|dffs [2] $end
$var wire 1 >" inst1|LPM_SHIFTREG_component|dffs [1] $end
$var wire 1 ?" inst1|LPM_SHIFTREG_component|dffs [0] $end
$var wire 1 @" inst8|LPM_COUNTER_component|auto_generated|safe_q [9] $end
$var wire 1 A" inst8|LPM_COUNTER_component|auto_generated|safe_q [8] $end
$var wire 1 B" inst8|LPM_COUNTER_component|auto_generated|safe_q [7] $end
$var wire 1 C" inst8|LPM_COUNTER_component|auto_generated|safe_q [6] $end
$var wire 1 D" inst8|LPM_COUNTER_component|auto_generated|safe_q [5] $end
$var wire 1 E" inst8|LPM_COUNTER_component|auto_generated|safe_q [4] $end
$var wire 1 F" inst8|LPM_COUNTER_component|auto_generated|safe_q [3] $end
$var wire 1 G" inst8|LPM_COUNTER_component|auto_generated|safe_q [2] $end
$var wire 1 H" inst8|LPM_COUNTER_component|auto_generated|safe_q [1] $end
$var wire 1 I" inst8|LPM_COUNTER_component|auto_generated|safe_q [0] $end
$upscope $end
$upscope $end
$enddefinitions $end
#0
$dumpvars
b10100001 !
0"
0#
0'
0&
0%
0$
0/
0.
0-
0,
0+
0*
0)
0(
0:
09
08
07
06
05
04
03
02
01
00
0;
0<
1=
x>
0?
1@
xA
1B
1C
1D
0E
0F
0G
0H
1I
0J
0K
1L
0M
0N
0O
1P
0Q
0R
0S
1T
0U
0V
0W
1X
0Y
0Z
0[
1\
0]
0^
0_
1`
1a
0b
0c
0d
0e
0f
1g
0h
0i
1j
0k
0l
1m
0n
0o
1p
0q
0r
1s
0t
0u
1v
0w
0x
1y
0z
1{
0|
0}
0~
0!!
0"!
0#!
0$!
1%!
0&!
1'!
0(!
0)!
1*!
0+!
0,!
1-!
0.!
0/!
00!
01!
12!
03!
04!
05!
16!
07!
08!
19!
0:!
1;!
1<!
0=!
1>!
1?!
0@!
1A!
1B!
1C!
0D!
0E!
0F!
0G!
0H!
1I!
0J!
0K!
1L!
0M!
0N!
1O!
0P!
1Q!
0R!
0S!
1T!
0U!
0V!
1W!
0X!
0Y!
1Z!
0[!
0\!
0]!
0^!
1_!
0`!
0a!
0b!
0c!
0d!
1e!
0f!
0g!
0q!
0p!
0o!
0n!
0m!
0l!
0k!
0j!
0i!
0h!
0~!
0}!
0|!
0{!
0z!
0y!
0x!
0w!
0v!
0u!
0t!
0s!
0r!
0+"
0*"
0)"
0("
0'"
0&"
0%"
0$"
0#"
0""
0!"
13"
02"
01"
00"
0/"
1."
0-"
1,"
07"
06"
05"
04"
0?"
0>"
0="
0<"
0;"
0:"
09"
08"
0I"
0H"
0G"
0F"
0E"
0D"
0C"
0B"
0A"
0@"
$end
#500
1"
1f
0>
1~!
1i
0g
1E
#1000
0"
0f
1>
#1500
1"
1f
0>
0~!
1}!
0i
1g
1~
0j
0E
1j
1E
1k
0k
#2000
0"
0f
1>
#2500
1"
1f
0>
1~!
1!!
1i
0g
1$!
0j
0E
1k
1&!
1g!
0%!
1<
1q!
1I"
0_!
1J!
0I!
1J
0I
1K!
1K
#3000
0"
0f
1>
#3500
1"
1f
0>
0~!
0}!
0!!
0i
1g
0~
1j
1E
0$!
0E
0k
#4000
0"
0f
1>
#4500
1"
1f
0>
1~!
1i
0g
1E
#5000
0"
0f
1>
#5500
1"
1f
0>
0~!
1}!
0i
1g
1~
0j
0E
1j
1E
1k
0k
#6000
0"
0f
1>
#6500
1"
1f
0>
1~!
1!!
1i
0g
1$!
0j
0E
1k
0&!
0g!
1%!
0<
#7000
0"
0f
1>
#7500
1"
1f
0>
0~!
0}!
0!!
0i
1g
0~
1j
1E
0$!
0E
0k
#8000
0"
0f
1>
#8500
1"
1f
0>
1~!
1i
0g
1E
#9000
0"
0f
1>
#9500
1"
1f
0>
0~!
1}!
0i
1g
1~
0j
0E
1j
1E
1k
0k
#10000
0"
0f
1>
#10500
1"
1f
0>
1~!
1!!
1i
0g
1$!
0j
0E
1k
1&!
1g!
0%!
1<
1p!
1H"
0q!
0I"
0L!
0K!
1c
0L
0K
1_!
0J!
1I!
0J
1I
1^!
1M
1L!
1K!
1L
1K
0^!
0M
#11000
0"
0f
1>
#11500
1"
1f
0>
0~!
0}!
0!!
0i
1g
0~
1j
1E
0$!
0E
0k
#12000
0"
0f
1>
#12500
1"
1f
0>
1~!
1i
0g
1E
#13000
0"
0f
1>
#13500
1"
1f
0>
0~!
1}!
0i
1g
1~
0j
0E
1j
1E
1k
0k
#14000
0"
0f
1>
#14500
1"
1f
0>
1~!
1!!
1i
0g
1$!
0j
0E
1k
0&!
0g!
1%!
0<
#15000
0"
0f
1>
#15500
1"
1f
0>
0~!
0}!
0!!
0i
1g
0~
1j
1E
0$!
0E
0k
#16000
0"
0f
1>
#16500
1"
1f
0>
1~!
1i
0g
1E
#17000
0"
0f
1>
#17500
1"
1f
0>
0~!
1}!
0i
1g
1~
0j
0E
1j
1E
1k
0k
#18000
0"
0f
1>
#18500
1"
1f
0>
1~!
1!!
1i
0g
1$!
0j
0E
1k
1&!
1g!
0%!
1<
1q!
1I"
0_!
1J!
0I!
0c
1J
0I
0L!
0K!
0L
0K
1^!
1M
#19000
0"
0f
1>
#19500
1"
1f
0>
0~!
0}!
0!!
0i
1g
0~
1j
1E
0$!
0E
0k
#20000
0"
0f
1>
#20500
1"
1f
0>
1~!
1i
0g
1E
#21000
0"
0f
1>
#21500
1"
1f
0>
0~!
1}!
0i
1g
1~
0j
0E
1j
1E
1k
0k
#22000
0"
0f
1>
#22500
1"
1f
0>
1~!
1!!
1i
0g
1$!
0j
0E
1k
0&!
0g!
1%!
0<
#23000
0"
0f
1>
#23500
1"
1f
0>
0~!
0}!
0!!
0i
1g
0~
1j
1E
0$!
0E
0k
#24000
0"
0f
1>
#24500
1"
1f
0>
1~!
1i
0g
1E
#25000
0"
0f
1>
#25500
1"
1f
0>
0~!
1}!
0i
1g
1~
0j
0E
1j
1E
1k
0k
#26000
0"
0f
1>
#26500
1"
1f
0>
1~!
1!!
1i
0g
1$!
0j
0E
1k
1&!
1g!
0%!
1<
1o!
0p!
0H"
1G"
0q!
0I"
1M!
0^!
1L!
1K!
1L
1K
1N
0M
0J!
1I!
0J
1I
1N!
0M!
1^!
0N
1M
1O
0K!
0K
0N!
0O
#27000
0"
0f
1>
#27500
1"
1f
0>
0~!
0}!
0!!
0i
1g
0~
1j
1E
0$!
0E
0k
#28000
0"
0f
1>
#28500
1"
1f
0>
1~!
1i
0g
1E
#29000
0"
0f
1>
#29500
1"
1f
0>
0~!
1}!
0i
1g
1~
0j
0E
1j
1E
1k
0k
#30000
0"
0f
1>
#30500
1"
1f
0>
1~!
1!!
1i
0g
1$!
0j
0E
1k
0&!
0g!
1%!
0<
#31000
0"
0f
1>
#31500
1"
1f
0>
0~!
0}!
0!!
0i
1g
0~
1j
1E
0$!
0E
0k
#32000
0"
0f
1>
#32500
1"
1f
0>
1~!
1i
0g
1E
#33000
0"
0f
1>
#33500
1"
1f
0>
0~!
1}!
0i
1g
1~
0j
0E
1j
1E
1k
0k
#34000
0"
0f
1>
#34500
1"
1f
0>
1~!
1!!
1i
0g
1$!
0j
0E
1k
1&!
1g!
0%!
1<
1q!
1I"
1J!
0I!
1J
0I
1K!
1K
#35000
0"
0f
1>
#35500
1"
1f
0>
0~!
0}!
0!!
0i
1g
0~
1j
1E
0$!
0E
0k
#36000
0"
0f
1>
#36500
1"
1f
0>
1~!
1i
0g
1E
#37000
0"
0f
1>
#37500
1"
1f
0>
0~!
1}!
0i
1g
1~
0j
0E
1j
1E
1k
0k
#38000
0"
0f
1>
#38500
1"
1f
0>
1~!
1!!
1i
0g
1$!
0j
0E
1k
0&!
0g!
1%!
0<
#39000
0"
0f
1>
#39500
1"
1f
0>
0~!
0}!
0!!
0i
1g
0~
1j
1E
0$!
0E
0k
#40000
0"
0f
1>
#40500
1"
1f
0>
1~!
1i
0g
1E
#41000
0"
0f
1>
#41500
1"
1f
0>
0~!
1}!
0i
1g
1~
0j
0E
1j
1E
1k
0k
#42000
0"
0f
1>
#42500
1"
1f
0>
1~!
1!!
1i
0g
1$!
0j
0E
1k
1&!
1g!
0%!
1<
1p!
1H"
0q!
0I"
0L!
0K!
1c
0L
0K
0J!
1I!
0J
1I
1M!
0^!
1N
0M
1L!
1K!
1L
1K
1N!
1O
0M!
1^!
0N
1M
0N!
0O
#43000
0"
0f
1>
#43500
1"
1f
0>
0~!
0}!
0!!
0i
1g
0~
1j
1E
0$!
0E
0k
#44000
0"
0f
1>
#44500
1"
1f
0>
1~!
1i
0g
1E
#45000
0"
0f
1>
#45500
1"
1f
0>
0~!
1}!
0i
1g
1~
0j
0E
1j
1E
1k
0k
#46000
0"
0f
1>
#46500
1"
1f
0>
1~!
1!!
1i
0g
1$!
0j
0E
1k
0&!
0g!
1%!
0<
#47000
0"
0f
1>
#47500
1"
1f
0>
0~!
0}!
0!!
0i
1g
0~
1j
1E
0$!
0E
0k
#48000
0"
0f
1>
#48500
1"
1f
0>
1~!
1i
0g
1E
#49000
0"
0f
1>
#49500
1"
1f
0>
0~!
1}!
0i
1g
1~
0j
0E
1j
1E
1k
0k
#50000
0"
0f
1>
#50500
1"
1f
0>
1~!
1!!
1i
0g
1$!
0j
0E
1k
1&!
1g!
0%!
1<
1q!
1I"
1J!
0I!
0c
1J
0I
0L!
0K!
0L
0K
1M!
0^!
1N
0M
1N!
1O
#51000
0"
0f
1>
#51500
1"
1f
0>
0~!
0}!
0!!
0i
1g
0~
1j
1E
0$!
0E
0k
#52000
0"
0f
1>
#52500
1"
1f
0>
1~!
1i
0g
1E
#53000
0"
0f
1>
#53500
1"
1f
0>
0~!
1}!
0i
1g
1~
0j
0E
1j
1E
1k
0k
#54000
0"
0f
1>
#54500
1"
1f
0>
1~!
1!!
1i
0g
1$!
0j
0E
1k
0&!
0g!
1%!
0<
#55000
0"
0f
1>
#55500
1"
1f
0>
0~!
0}!
0!!
0i
1g
0~
1j
1E
0$!
0E
0k
#56000
0"
0f
1>
#56500
1"
1f
0>
1~!
1i
0g
1E
#57000
0"
0f
1>
#57500
1"
1f
0>
0~!
1}!
0i
1g
1~
0j
0E
1j
1E
1k
0k
#58000
0"
0f
1>
#58500
1"
1f
0>
1~!
1!!
1i
0g
1$!
0j
0E
1k
1&!
1g!
0%!
1<
0o!
1n!
0p!
0H"
0G"
1F"
0q!
0I"
1_!
0M!
1^!
0O!
0N!
1L!
1K!
1L
1K
1b
0N
1M
0P
0O
0J!
1I!
0J
1I
1O!
1N!
1^
0^!
0M
1P
1O
1Q
0K!
0K
0^
0Q
#59000
0"
0f
1>
#59500
1"
1f
0>
0~!
0}!
0!!
0i
1g
0~
1j
1E
0$!
0E
0k
#60000
0"
0f
1>
#60500
1"
1f
0>
1~!
1i
0g
1E
#61000
0"
0f
1>
#61500
1"
1f
0>
0~!
1}!
0i
1g
1~
0j
0E
1j
1E
1k
0k
#62000
0"
0f
1>
#62500
1"
1f
0>
1~!
1!!
1i
0g
1$!
0j
0E
1k
0&!
0g!
1%!
0<
#63000
0"
0f
1>
#63500
1"
1f
0>
0~!
0}!
0!!
0i
1g
0~
1j
1E
0$!
0E
0k
#64000
0"
0f
1>
#64500
1"
1f
0>
1~!
1i
0g
1E
#65000
0"
0f
1>
#65500
1"
1f
0>
0~!
1}!
0i
1g
1~
0j
0E
1j
1E
1k
0k
#66000
0"
0f
1>
#66500
1"
1f
0>
1~!
1!!
1i
0g
1$!
0j
0E
1k
1&!
1g!
0%!
1<
1q!
1I"
0_!
1J!
0I!
1J
0I
1K!
1K
#67000
0"
0f
1>
#67500
1"
1f
0>
0~!
0}!
0!!
0i
1g
0~
1j
1E
0$!
0E
0k
#68000
0"
0f
1>
#68500
1"
1f
0>
1~!
1i
0g
1E
#69000
0"
0f
1>
#69500
1"
1f
0>
0~!
1}!
0i
1g
1~
0j
0E
1j
1E
1k
0k
#70000
0"
0f
1>
#70500
1"
1f
0>
1~!
1!!
1i
0g
1$!
0j
0E
1k
0&!
0g!
1%!
0<
#71000
0"
0f
1>
#71500
1"
1f
0>
0~!
0}!
0!!
0i
1g
0~
1j
1E
0$!
0E
0k
#72000
0"
0f
1>
#72500
1"
1f
0>
1~!
1i
0g
1E
#73000
0"
0f
1>
#73500
1"
1f
0>
0~!
1}!
0i
1g
1~
0j
0E
1j
1E
1k
0k
#74000
0"
0f
1>
#74500
1"
1f
0>
1~!
1!!
1i
0g
1$!
0j
0E
1k
1&!
1g!
0%!
1<
1p!
1H"
0q!
0I"
0L!
0K!
1e
1c
0L
0K
1_!
0J!
1I!
0J
1I
1^!
1\!
1d
1M
1L!
1K!
1L
1K
0^!
0M
1D!
1+!
1E!
0C!
06!
0*!
1#
0A!
0=
1F!
1;
#75000
0"
0f
1>
#75500
1"
1f
0>
0~!
0}!
0!!
0i
1g
0~
1j
1E
0$!
0E
0k
#76000
0"
0f
1>
#76500
1"
1f
0>
1~!
1i
0g
1E
#77000
0"
0f
1>
#77500
1"
1f
0>
0~!
1}!
0i
1g
1~
0j
0E
1j
1E
1k
0k
#78000
0"
0f
1>
#78500
1"
1f
0>
1~!
1!!
1i
0g
1$!
0j
0E
1k
0&!
0g!
1%!
0<
#79000
0"
0f
1>
#79500
1"
1f
0>
0~!
0}!
0!!
0i
1g
0~
1j
1E
0$!
0E
0k
#80000
0"
0f
1>
#80500
1"
1f
0>
1~!
1i
0g
1E
#81000
0"
0f
1>
#81500
1"
1f
0>
0~!
1}!
0i
1g
1~
0j
0E
1j
1E
1k
0k
#82000
0"
0f
1>
#82500
1"
1f
0>
1~!
1!!
1i
0g
1$!
0j
0E
1k
1&!
1g!
0%!
1<
0n!
0p!
17"
0H"
0F"
1`!
0N!
0e
0K!
09!
10!
0'!
0c
0K
0b
0O
1'
1a!
0\!
1@!
11!
0d
1A!
1=
#83000
0"
0f
1>
