i2c_pasha/simulation/qsim/i2c.msim.vcd
$comment
	File created using the following command:
		vcd file i2c.msim.vcd -direction
$end
$date
	Sat Oct 23 17:04:23 2021
$end
$version
	ModelSim Version 10.1d
$end
$timescale
	1ps
$end
$scope module i2c_vlg_vec_tst $end
$var reg 8 ! DATA [7:0] $end
$var reg 1 " QUARZ $end
$var wire 1 # LED_0 $end
$var wire 1 $ LED_1 $end
$var wire 1 % LED_2 $end
$var wire 1 & LED_3 $end
$var wire 1 ' LED_5 $end
$var wire 1 ( pin_name1 $end
$var wire 1 ) SCL $end
$var wire 1 * SDA $end
$var wire 1 + SSCL $end
$var wire 1 , sampler $end
$scope module i1 $end
$var wire 1 - gnd $end
$var wire 1 . vcc $end
$var wire 1 / unknown $end
$var tri1 1 0 devclrn $end
$var tri1 1 1 devpor $end
$var tri1 1 2 devoe $end
$var wire 1 3 inst9|LPM_COUNTER_component|auto_generated|counter_comb_bita3~combout $end
$var wire 1 4 inst9|LPM_COUNTER_component|auto_generated|counter_comb_bita10~combout $end
$var wire 1 5 inst6|LPM_COUNTER_component|auto_generated|counter_comb_bita0~combout $end
$var wire 1 6 inst6|LPM_COUNTER_component|auto_generated|counter_comb_bita0~COUT $end
$var wire 1 7 inst6|LPM_COUNTER_component|auto_generated|counter_comb_bita1~combout $end
$var wire 1 8 inst6|LPM_COUNTER_component|auto_generated|counter_comb_bita1~COUT $end
$var wire 1 9 inst6|LPM_COUNTER_component|auto_generated|counter_comb_bita2~combout $end
$var wire 1 : inst6|LPM_COUNTER_component|auto_generated|counter_comb_bita2~COUT $end
$var wire 1 ; inst6|LPM_COUNTER_component|auto_generated|counter_comb_bita3~combout $end
$var wire 1 < inst6|LPM_COUNTER_component|auto_generated|counter_comb_bita3~COUT $end
$var wire 1 = inst6|LPM_COUNTER_component|auto_generated|counter_comb_bita4~combout $end
$var wire 1 > inst6|LPM_COUNTER_component|auto_generated|counter_comb_bita4~COUT $end
$var wire 1 ? inst6|LPM_COUNTER_component|auto_generated|counter_comb_bita5~combout $end
$var wire 1 @ inst6|LPM_COUNTER_component|auto_generated|counter_comb_bita5~COUT $end
$var wire 1 A inst6|LPM_COUNTER_component|auto_generated|counter_comb_bita6~combout $end
$var wire 1 B inst6|LPM_COUNTER_component|auto_generated|counter_comb_bita6~COUT $end
$var wire 1 C inst6|LPM_COUNTER_component|auto_generated|counter_comb_bita7~combout $end
$var wire 1 D inst6|LPM_COUNTER_component|auto_generated|counter_comb_bita7~COUT $end
$var wire 1 E inst6|LPM_COUNTER_component|auto_generated|counter_comb_bita8~combout $end
$var wire 1 F inst6|LPM_COUNTER_component|auto_generated|counter_comb_bita8~COUT $end
$var wire 1 G inst6|LPM_COUNTER_component|auto_generated|counter_comb_bita9~combout $end
$var wire 1 H inst6|LPM_COUNTER_component|auto_generated|counter_comb_bita9~COUT $end
$var wire 1 I inst6|LPM_COUNTER_component|auto_generated|counter_comb_bita10~combout $end
$var wire 1 J inst6|LPM_COUNTER_component|auto_generated|counter_comb_bita10~COUT $end
$var wire 1 K inst6|LPM_COUNTER_component|auto_generated|counter_comb_bita11~combout $end
$var wire 1 L inst6|LPM_COUNTER_component|auto_generated|counter_comb_bita11~COUT $end
$var wire 1 M inst6|LPM_COUNTER_component|auto_generated|counter_comb_bita11~0_combout $end
$var wire 1 N inst16|LPM_COUNTER_component|auto_generated|counter_comb_bita1~combout $end
$var wire 1 O inst16|LPM_COUNTER_component|auto_generated|counter_comb_bita4~combout $end
$var wire 1 P inst16|LPM_COUNTER_component|auto_generated|counter_comb_bita8~combout $end
$var wire 1 Q inst16|LPM_COUNTER_component|auto_generated|counter_comb_bita10~combout $end
$var wire 1 R inst4|LPM_COUNTER_component|auto_generated|counter_comb_bita0~combout $end
$var wire 1 S inst4|LPM_COUNTER_component|auto_generated|counter_comb_bita0~COUT $end
$var wire 1 T inst4|LPM_COUNTER_component|auto_generated|counter_comb_bita1~combout $end
$var wire 1 U inst4|LPM_COUNTER_component|auto_generated|counter_comb_bita1~COUT $end
$var wire 1 V inst4|LPM_COUNTER_component|auto_generated|counter_comb_bita2~combout $end
$var wire 1 W inst4|LPM_COUNTER_component|auto_generated|counter_comb_bita2~COUT $end
$var wire 1 X inst4|LPM_COUNTER_component|auto_generated|counter_comb_bita3~combout $end
$var wire 1 Y inst4|LPM_COUNTER_component|auto_generated|counter_comb_bita3~COUT $end
$var wire 1 Z inst4|LPM_COUNTER_component|auto_generated|counter_comb_bita4~combout $end
$var wire 1 [ inst4|LPM_COUNTER_component|auto_generated|counter_comb_bita4~COUT $end
$var wire 1 \ inst4|LPM_COUNTER_component|auto_generated|counter_comb_bita5~combout $end
$var wire 1 ] inst4|LPM_COUNTER_component|auto_generated|counter_comb_bita5~COUT $end
$var wire 1 ^ inst4|LPM_COUNTER_component|auto_generated|counter_comb_bita6~combout $end
$var wire 1 _ inst4|LPM_COUNTER_component|auto_generated|counter_comb_bita6~COUT $end
$var wire 1 ` inst4|LPM_COUNTER_component|auto_generated|counter_comb_bita7~combout $end
$var wire 1 a inst4|LPM_COUNTER_component|auto_generated|counter_comb_bita7~COUT $end
$var wire 1 b inst4|LPM_COUNTER_component|auto_generated|counter_comb_bita8~combout $end
$var wire 1 c inst4|LPM_COUNTER_component|auto_generated|counter_comb_bita8~COUT $end
$var wire 1 d inst4|LPM_COUNTER_component|auto_generated|counter_comb_bita9~combout $end
$var wire 1 e inst4|LPM_COUNTER_component|auto_generated|counter_comb_bita9~COUT $end
$var wire 1 f inst4|LPM_COUNTER_component|auto_generated|counter_comb_bita10~combout $end
$var wire 1 g inst4|LPM_COUNTER_component|auto_generated|counter_comb_bita10~COUT $end
$var wire 1 h inst4|LPM_COUNTER_component|auto_generated|counter_comb_bita11~combout $end
$var wire 1 i inst4|LPM_COUNTER_component|auto_generated|counter_comb_bita11~COUT $end
$var wire 1 j inst4|LPM_COUNTER_component|auto_generated|counter_comb_bita12~combout $end
$var wire 1 k inst4|LPM_COUNTER_component|auto_generated|counter_comb_bita12~COUT $end
$var wire 1 l inst4|LPM_COUNTER_component|auto_generated|counter_comb_bita12~0_combout $end
$var wire 1 m inst~0_combout $end
$var wire 1 n inst9|LPM_COUNTER_component|auto_generated|cmpr2|aneb_result_wire[0]~2_combout $end
$var wire 1 o inst6|LPM_COUNTER_component|auto_generated|cmpr2|aneb_result_wire[0]~0_combout $end
$var wire 1 p inst6|LPM_COUNTER_component|auto_generated|cmpr2|aneb_result_wire[0]~1_combout $end
$var wire 1 q inst6|LPM_COUNTER_component|auto_generated|cmpr2|aneb_result_wire[0]~2_combout $end
$var wire 1 r inst6|LPM_COUNTER_component|auto_generated|cout_actual~combout $end
$var wire 1 s inst16|LPM_COUNTER_component|auto_generated|cmpr2|aneb_result_wire[0]~0_combout $end
$var wire 1 t inst4|LPM_COUNTER_component|auto_generated|cmpr2|aneb_result_wire[0]~0_combout $end
$var wire 1 u inst4|LPM_COUNTER_component|auto_generated|cmpr2|aneb_result_wire[0]~1_combout $end
$var wire 1 v inst4|LPM_COUNTER_component|auto_generated|cmpr2|aneb_result_wire[0]~2_combout $end
$var wire 1 w inst4|LPM_COUNTER_component|auto_generated|cmpr2|aneb_result_wire[0]~3_combout $end
$var wire 1 x inst4|LPM_COUNTER_component|auto_generated|cout_actual~combout $end
$var wire 1 y QUARZ~combout $end
$var wire 1 z QUARZ~clkctrl_outclk $end
$var wire 1 { inst9|LPM_COUNTER_component|auto_generated|counter_comb_bita0~combout $end
$var wire 1 | ~GND~combout $end
$var wire 1 } inst7~0_combout $end
$var wire 1 ~ inst7~regout $end
$var wire 1 !! inst9|LPM_COUNTER_component|auto_generated|counter_comb_bita0~COUT $end
$var wire 1 "! inst9|LPM_COUNTER_component|auto_generated|counter_comb_bita1~combout $end
$var wire 1 #! inst9|LPM_COUNTER_component|auto_generated|counter_comb_bita1~COUT $end
$var wire 1 $! inst9|LPM_COUNTER_component|auto_generated|counter_comb_bita2~combout $end
$var wire 1 %! inst9|LPM_COUNTER_component|auto_generated|counter_comb_bita2~COUT $end
$var wire 1 &! inst9|LPM_COUNTER_component|auto_generated|counter_comb_bita3~COUT $end
$var wire 1 '! inst9|LPM_COUNTER_component|auto_generated|counter_comb_bita4~combout $end
$var wire 1 (! inst9|LPM_COUNTER_component|auto_generated|counter_comb_bita4~COUT $end
$var wire 1 )! inst9|LPM_COUNTER_component|auto_generated|counter_comb_bita5~combout $end
$var wire 1 *! inst9|LPM_COUNTER_component|auto_generated|counter_comb_bita5~COUT $end
$var wire 1 +! inst9|LPM_COUNTER_component|auto_generated|counter_comb_bita6~COUT $end
$var wire 1 ,! inst9|LPM_COUNTER_component|auto_generated|counter_comb_bita7~combout $end
$var wire 1 -! inst9|LPM_COUNTER_component|auto_generated|counter_comb_bita6~combout $end
$var wire 1 .! inst9|LPM_COUNTER_component|auto_generated|cmpr2|aneb_result_wire[0]~1_combout $end
$var wire 1 /! inst9|LPM_COUNTER_component|auto_generated|counter_comb_bita7~COUT $end
$var wire 1 0! inst9|LPM_COUNTER_component|auto_generated|counter_comb_bita8~COUT $end
$var wire 1 1! inst9|LPM_COUNTER_component|auto_generated|counter_comb_bita9~combout $end
$var wire 1 2! inst9|LPM_COUNTER_component|auto_generated|counter_comb_bita9~COUT $end
$var wire 1 3! inst9|LPM_COUNTER_component|auto_generated|counter_comb_bita10~COUT $end
$var wire 1 4! inst9|LPM_COUNTER_component|auto_generated|counter_comb_bita11~combout $end
$var wire 1 5! inst9|LPM_COUNTER_component|auto_generated|counter_comb_bita11~COUT $end
$var wire 1 6! inst9|LPM_COUNTER_component|auto_generated|counter_comb_bita11~0_combout $end
$var wire 1 7! inst9|LPM_COUNTER_component|auto_generated|counter_comb_bita8~combout $end
$var wire 1 8! inst9|LPM_COUNTER_component|auto_generated|cmpr2|aneb_result_wire[0]~0_combout $end
$var wire 1 9! inst9|LPM_COUNTER_component|auto_generated|cout_actual~combout $end
$var wire 1 :! inst10~0_combout $end
$var wire 1 ;! inst10~regout $end
$var wire 1 <! inst5|LPM_COUNTER_component|auto_generated|counter_comb_bita0~COUT $end
$var wire 1 =! inst5|LPM_COUNTER_component|auto_generated|counter_comb_bita1~combout $end
$var wire 1 >! inst5|LPM_COUNTER_component|auto_generated|counter_comb_bita2~combout $end
$var wire 1 ?! inst5|LPM_COUNTER_component|auto_generated|counter_comb_bita4~COUT $end
$var wire 1 @! inst5|LPM_COUNTER_component|auto_generated|counter_comb_bita4~0_combout $end
$var wire 1 A! inst5|LPM_COUNTER_component|auto_generated|counter_comb_bita0~combout $end
$var wire 1 B! inst5|LPM_COUNTER_component|auto_generated|counter_comb_bita3~combout $end
$var wire 1 C! inst5|LPM_COUNTER_component|auto_generated|cmpr2|aneb_result_wire[0]~0_combout $end
$var wire 1 D! inst5|LPM_COUNTER_component|auto_generated|cout_actual~combout $end
$var wire 1 E! inst5|LPM_COUNTER_component|auto_generated|counter_comb_bita1~COUT $end
$var wire 1 F! inst5|LPM_COUNTER_component|auto_generated|counter_comb_bita2~COUT $end
$var wire 1 G! inst5|LPM_COUNTER_component|auto_generated|counter_comb_bita3~COUT $end
$var wire 1 H! inst5|LPM_COUNTER_component|auto_generated|counter_comb_bita4~combout $end
$var wire 1 I! inst~4_combout $end
$var wire 1 J! inst21|LPM_MUX_component|auto_generated|_~2_combout $end
$var wire 1 K! inst~5_combout $end
$var wire 1 L! inst21|LPM_MUX_component|auto_generated|_~0_combout $end
$var wire 1 M! inst21|LPM_MUX_component|auto_generated|_~1_combout $end
$var wire 1 N! inst~6_combout $end
$var wire 1 O! inst~1_combout $end
$var wire 1 P! inst~2_combout $end
$var wire 1 Q! inst20~0_combout $end
$var wire 1 R! inst20~regout $end
$var wire 1 S! inst~3_combout $end
$var wire 1 T! inst~7_combout $end
$var wire 1 U! inst16|LPM_COUNTER_component|auto_generated|counter_comb_bita0~combout $end
$var wire 1 V! inst16|LPM_COUNTER_component|auto_generated|counter_comb_bita0~COUT $end
$var wire 1 W! inst16|LPM_COUNTER_component|auto_generated|counter_comb_bita1~COUT $end
$var wire 1 X! inst16|LPM_COUNTER_component|auto_generated|counter_comb_bita2~combout $end
$var wire 1 Y! inst16|LPM_COUNTER_component|auto_generated|counter_comb_bita2~COUT $end
$var wire 1 Z! inst16|LPM_COUNTER_component|auto_generated|counter_comb_bita3~combout $end
$var wire 1 [! inst16|LPM_COUNTER_component|auto_generated|cmpr2|aneb_result_wire[0]~2_combout $end
$var wire 1 \! inst16|LPM_COUNTER_component|auto_generated|counter_comb_bita3~COUT $end
$var wire 1 ]! inst16|LPM_COUNTER_component|auto_generated|counter_comb_bita4~COUT $end
$var wire 1 ^! inst16|LPM_COUNTER_component|auto_generated|counter_comb_bita5~combout $end
$var wire 1 _! inst16|LPM_COUNTER_component|auto_generated|counter_comb_bita5~COUT $end
$var wire 1 `! inst16|LPM_COUNTER_component|auto_generated|counter_comb_bita6~combout $end
$var wire 1 a! inst16|LPM_COUNTER_component|auto_generated|counter_comb_bita6~COUT $end
$var wire 1 b! inst16|LPM_COUNTER_component|auto_generated|counter_comb_bita7~combout $end
$var wire 1 c! inst16|LPM_COUNTER_component|auto_generated|cmpr2|aneb_result_wire[0]~1_combout $end
$var wire 1 d! inst16|LPM_COUNTER_component|auto_generated|counter_comb_bita7~COUT $end
$var wire 1 e! inst16|LPM_COUNTER_component|auto_generated|counter_comb_bita8~COUT $end
$var wire 1 f! inst16|LPM_COUNTER_component|auto_generated|counter_comb_bita9~combout $end
$var wire 1 g! inst16|LPM_COUNTER_component|auto_generated|counter_comb_bita9~COUT $end
$var wire 1 h! inst16|LPM_COUNTER_component|auto_generated|counter_comb_bita10~COUT $end
$var wire 1 i! inst16|LPM_COUNTER_component|auto_generated|counter_comb_bita11~combout $end
$var wire 1 j! inst16|LPM_COUNTER_component|auto_generated|counter_comb_bita11~COUT $end
$var wire 1 k! inst16|LPM_COUNTER_component|auto_generated|counter_comb_bita11~0_combout $end
$var wire 1 l! inst16|LPM_COUNTER_component|auto_generated|cout_actual~combout $end
$var wire 1 m! inst16|LPM_COUNTER_component|auto_generated|cout_actual~clkctrl_outclk $end
$var wire 1 n! inst13~0_combout $end
$var wire 1 o! inst13~regout $end
$var wire 1 p! inst14~feeder_combout $end
$var wire 1 q! inst14~regout $end
$var wire 1 r! inst22|LPM_DECODE_component|auto_generated|w_anode229w[3]~0_combout $end
$var wire 1 s! inst23~regout $end
$var wire 1 t! inst6|LPM_COUNTER_component|auto_generated|safe_q [11] $end
$var wire 1 u! inst6|LPM_COUNTER_component|auto_generated|safe_q [10] $end
$var wire 1 v! inst6|LPM_COUNTER_component|auto_generated|safe_q [9] $end
$var wire 1 w! inst6|LPM_COUNTER_component|auto_generated|safe_q [8] $end
$var wire 1 x! inst6|LPM_COUNTER_component|auto_generated|safe_q [7] $end
$var wire 1 y! inst6|LPM_COUNTER_component|auto_generated|safe_q [6] $end
$var wire 1 z! inst6|LPM_COUNTER_component|auto_generated|safe_q [5] $end
$var wire 1 {! inst6|LPM_COUNTER_component|auto_generated|safe_q [4] $end
$var wire 1 |! inst6|LPM_COUNTER_component|auto_generated|safe_q [3] $end
$var wire 1 }! inst6|LPM_COUNTER_component|auto_generated|safe_q [2] $end
$var wire 1 ~! inst6|LPM_COUNTER_component|auto_generated|safe_q [1] $end
$var wire 1 !" inst6|LPM_COUNTER_component|auto_generated|safe_q [0] $end
$var wire 1 "" inst22|LPM_DECODE_component|auto_generated|w_anode229w [3] $end
$var wire 1 #" inst22|LPM_DECODE_component|auto_generated|w_anode229w [2] $end
$var wire 1 $" inst22|LPM_DECODE_component|auto_generated|w_anode229w [1] $end
$var wire 1 %" inst22|LPM_DECODE_component|auto_generated|w_anode229w [0] $end
$var wire 1 &" inst9|LPM_COUNTER_component|auto_generated|safe_q [11] $end
$var wire 1 '" inst9|LPM_COUNTER_component|auto_generated|safe_q [10] $end
$var wire 1 (" inst9|LPM_COUNTER_component|auto_generated|safe_q [9] $end
$var wire 1 )" inst9|LPM_COUNTER_component|auto_generated|safe_q [8] $end
$var wire 1 *" inst9|LPM_COUNTER_component|auto_generated|safe_q [7] $end
$var wire 1 +" inst9|LPM_COUNTER_component|auto_generated|safe_q [6] $end
$var wire 1 ," inst9|LPM_COUNTER_component|auto_generated|safe_q [5] $end
$var wire 1 -" inst9|LPM_COUNTER_component|auto_generated|safe_q [4] $end
$var wire 1 ." inst9|LPM_COUNTER_component|auto_generated|safe_q [3] $end
$var wire 1 /" inst9|LPM_COUNTER_component|auto_generated|safe_q [2] $end
$var wire 1 0" inst9|LPM_COUNTER_component|auto_generated|safe_q [1] $end
$var wire 1 1" inst9|LPM_COUNTER_component|auto_generated|safe_q [0] $end
$var wire 1 2" inst4|LPM_COUNTER_component|auto_generated|safe_q [12] $end
$var wire 1 3" inst4|LPM_COUNTER_component|auto_generated|safe_q [11] $end
$var wire 1 4" inst4|LPM_COUNTER_component|auto_generated|safe_q [10] $end
$var wire 1 5" inst4|LPM_COUNTER_component|auto_generated|safe_q [9] $end
$var wire 1 6" inst4|LPM_COUNTER_component|auto_generated|safe_q [8] $end
$var wire 1 7" inst4|LPM_COUNTER_component|auto_generated|safe_q [7] $end
$var wire 1 8" inst4|LPM_COUNTER_component|auto_generated|safe_q [6] $end
$var wire 1 9" inst4|LPM_COUNTER_component|auto_generated|safe_q [5] $end
$var wire 1 :" inst4|LPM_COUNTER_component|auto_generated|safe_q [4] $end
$var wire 1 ;" inst4|LPM_COUNTER_component|auto_generated|safe_q [3] $end
$var wire 1 <" inst4|LPM_COUNTER_component|auto_generated|safe_q [2] $end
$var wire 1 =" inst4|LPM_COUNTER_component|auto_generated|safe_q [1] $end
$var wire 1 >" inst4|LPM_COUNTER_component|auto_generated|safe_q [0] $end
$var wire 1 ?" inst5|LPM_COUNTER_component|auto_generated|safe_q [4] $end
$var wire 1 @" inst5|LPM_COUNTER_component|auto_generated|safe_q [3] $end
$var wire 1 A" inst5|LPM_COUNTER_component|auto_generated|safe_q [2] $end
$var wire 1 B" inst5|LPM_COUNTER_component|auto_generated|safe_q [1] $end
$var wire 1 C" inst5|LPM_COUNTER_component|auto_generated|safe_q [0] $end
$var wire 1 D" inst16|LPM_COUNTER_component|auto_generated|safe_q [11] $end
$var wire 1 E" inst16|LPM_COUNTER_component|auto_generated|safe_q [10] $end
$var wire 1 F" inst16|LPM_COUNTER_component|auto_generated|safe_q [9] $end
$var wire 1 G" inst16|LPM_COUNTER_component|auto_generated|safe_q [8] $end
$var wire 1 H" inst16|LPM_COUNTER_component|auto_generated|safe_q [7] $end
$var wire 1 I" inst16|LPM_COUNTER_component|auto_generated|safe_q [6] $end
$var wire 1 J" inst16|LPM_COUNTER_component|auto_generated|safe_q [5] $end
$var wire 1 K" inst16|LPM_COUNTER_component|auto_generated|safe_q [4] $end
$var wire 1 L" inst16|LPM_COUNTER_component|auto_generated|safe_q [3] $end
$var wire 1 M" inst16|LPM_COUNTER_component|auto_generated|safe_q [2] $end
$var wire 1 N" inst16|LPM_COUNTER_component|auto_generated|safe_q [1] $end
$var wire 1 O" inst16|LPM_COUNTER_component|auto_generated|safe_q [0] $end
$var wire 1 P" DATA~combout [7] $end
$var wire 1 Q" DATA~combout [6] $end
$var wire 1 R" DATA~combout [5] $end
$var wire 1 S" DATA~combout [4] $end
$var wire 1 T" DATA~combout [3] $end
$var wire 1 U" DATA~combout [2] $end
$var wire 1 V" DATA~combout [1] $end
$var wire 1 W" DATA~combout [0] $end
$upscope $end
$upscope $end
$enddefinitions $end
#0
$dumpvars
b11001 !
0"
0#
0$
0%
0&
0'
0(
1)
1*
1+
x,
0-
1.
x/
10
11
12
03
04
15
06
07
18
09
0:
0;
1<
0=
0>
0?
1@
0A
0B
0C
1D
0E
0F
0G
1H
0I
0J
0K
1L
0M
0N
0O
0P
0Q
1R
0S
0T
1U
0V
0W
0X
1Y
0Z
0[
0\
1]
0^
0_
0`
1a
0b
0c
0d
1e
0f
0g
0h
1i
0j
0k
0l
xm
0n
0o
0p
0q
0r
1s
1t
0u
0v
0w
0x
0y
0z
1{
0|
1}
0~
0!!
0"!
1#!
0$!
0%!
1&!
0'!
0(!
0)!
1*!
0+!
0,!
0-!
0.!
1/!
00!
01!
12!
03!
04!
15!
06!
07!
18!
09!
1:!
0;!
x<!
x=!
x>!
x?!
x@!
xA!
xB!
xC!
xD!
xE!
xF!
xG!
xH!
xI!
0J!
xK!
xL!
xM!
xN!
xO!
xP!
1Q!
0R!
1S!
1T!
1U!
0V!
1W!
0X!
0Y!
0Z!
0[!
1\!
0]!
0^!
1_!
0`!
0a!
0b!
1c!
1d!
0e!
0f!
1g!
0h!
0i!
1j!
0k!
0l!
0m!
1n!
0o!
0p!
0q!
xr!
0s!
0!"
0~!
0}!
0|!
0{!
0z!
0y!
0x!
0w!
0v!
0u!
0t!
z%"
z$"
z#"
x""
01"
00"
0/"
0."
0-"
0,"
0+"
0*"
0)"
0("
0'"
0&"
0>"
0="
0<"
0;"
0:"
09"
08"
07"
06"
05"
04"
03"
02"
xC"
xB"
xA"
x@"
x?"
0O"
0N"
0M"
0L"
0K"
0J"
0I"
0H"
0G"
0F"
0E"
0D"
1W"
0V"
0U"
1T"
1S"
0R"
0Q"
0P"
$end
#10000
1"
1y
1z
0,
1>"
1!"
1S
0R
16
05
1T
17
#20000
0"
0y
0z
1,
#30000
1"
1y
1z
0,
1="
1~!
0>"
0!"
0U
0T
08
07
0S
1R
06
15
1V
19
1U
1T
18
17
0V
09
#40000
0"
0y
0z
1,
#50000
1"
1y
1z
0,
1>"
1!"
1S
0R
16
05
0U
0T
08
07
1V
19
#60000
0"
0y
0z
1,
#70000
1"
1y
1z
0,
0="
1<"
0~!
1}!
0>"
0!"
1U
1T
1W
0V
18
17
1:
09
0S
1R
06
15
0W
1V
1X
0:
19
1;
0T
07
0X
0;
#80000
0"
0y
0z
1,
#90000
1"
1y
1z
0,
1>"
1!"
1S
0R
16
05
1T
17
#100000
0"
0y
0z
1,
#110000
1"
1y
1z
0,
1="
1~!
0>"
0!"
0U
0T
08
07
0S
1R
06
15
1W
0V
1:
09
1U
1T
18
17
1X
1;
0W
1V
0:
19
0X
0;
#120000
0"
0y
0z
1,
#130000
1"
1y
1z
0,
1>"
1!"
1S
0R
16
05
0U
0T
08
07
1W
0V
1:
09
1X
1;
#140000
0"
0y
0z
1,
#150000
1"
1y
1z
0,
0="
0<"
1;"
0~!
0}!
1|!
0>"
0!"
1U
1T
0W
1V
0Y
0X
18
17
0:
19
0<
0;
0S
1R
06
15
0V
1Y
1X
1Z
09
1<
1;
1=
0T
07
0Z
0=
#160000
0"
0y
0z
1,
#170000
1"
1y
1z
0,
1>"
1!"
1S
0R
1q
16
05
1T
17
#180000
0"
0y
0z
1,
#190000
1"
1y
1z
0,
1="
1~!
0>"
0!"
0U
0T
0q
08
07
0S
1R
06
15
1V
19
1U
1T
18
17
0V
09
#200000
0"
0y
0z
1,
#210000
1"
1y
1z
0,
1>"
1!"
1S
0R
16
05
0U
0T
08
07
1V
19
#220000
0"
0y
0z
1,
#230000
1"
1y
1z
0,
0="
1<"
0~!
1}!
0>"
0!"
1U
1T
1W
0V
18
17
1:
09
0S
1R
06
15
0W
1V
0Y
0X
0:
19
0<
0;
0T
07
1Y
1X
1Z
1<
1;
1=
0Z
0=
#240000
0"
0y
0z
1,
#250000
1"
1y
1z
0,
1>"
1!"
1S
0R
16
05
1T
17
#260000
0"
0y
0z
1,
#270000
1"
1y
1z
0,
1="
1~!
0>"
0!"
1v
0U
0T
08
07
0S
1R
06
15
1W
0V
1:
09
1U
1T
18
17
0Y
0X
0<
0;
0W
1V
0:
19
1Z
1=
1Y
1X
1<
1;
0Z
0=
#280000
0"
0y
0z
1,
#290000
1"
1y
1z
0,
1>"
1!"
1w
1S
0R
16
05
0U
0T
08
07
1W
0V
1:
09
0Y
0X
0<
0;
1Z
1=
#300000
0"
0y
0z
1,
#310000
1"
1y
1z
0,
0="
0<"
0;"
1:"
0~!
0}!
0|!
1{!
0>"
0!"
0v
1U
1T
0W
1V
1Y
1X
1[
0Z
18
17
0:
19
1<
1;
1>
0=
0w
0S
1R
06
15
0V
0X
0[
1Z
1\
09
0;
0>
1=
1?
0T
07
0\
0?
#320000
0"
0y
0z
1,
#330000
1"
1y
1z
0,
1>"
1!"
1S
0R
16
05
1T
17
#340000
0"
0y
0z
1,
#350000
1"
1y
1z
0,
1="
1~!
0>"
0!"
0U
0T
08
07
0S
1R
06
15
1V
19
1U
1T
18
17
0V
09
#360000
0"
0y
0z
1,
#370000
1"
1y
1z
0,
1>"
1!"
1S
0R
16
05
0U
0T
08
07
1V
19
#380000
0"
0y
0z
1,
#390000
1"
1y
1z
0,
0="
1<"
0~!
1}!
0>"
0!"
1U
1T
1W
0V
18
17
1:
09
0S
1R
06
15
0W
1V
1X
0:
19
1;
0T
07
0X
0;
#400000
0"
0y
0z
1,
#410000
1"
1y
1z
0,
1>"
1!"
1S
0R
16
05
1T
17
#420000
0"
0y
0z
1,
#430000
1"
1y
1z
0,
1="
1~!
0>"
0!"
0U
0T
08
07
0S
1R
06
15
1W
0V
1:
09
1U
1T
18
17
1X
1;
0W
1V
0:
19
0X
0;
#440000
0"
0y
0z
1,
#450000
1"
1y
1z
0,
1>"
1!"
1S
0R
16
05
0U
0T
08
07
1W
0V
1:
09
1X
1;
#460000
0"
0y
0z
1,
#470000
1"
1y
1z
0,
0="
0<"
1;"
0~!
0}!
1|!
0>"
0!"
1U
1T
0W
1V
0Y
0X
18
17
0:
19
0<
0;
0S
1R
06
15
0V
1Y
1X
1[
0Z
09
1<
1;
1>
0=
0T
07
0[
1Z
1\
0>
1=
1?
0\
0?
#480000
0"
0y
0z
1,
#490000
1"
1y
1z
0,
1>"
1!"
1S
0R
1q
16
05
1T
17
#500000
0"
0y
0z
1,
#510000
1"
1y
1z
0,
1="
1~!
0>"
0!"
0U
0T
0q
08
07
0S
1R
06
15
1V
19
1U
1T
18
17
0V
09
#520000
0"
0y
0z
1,
#530000
1"
1y
1z
0,
1>"
1!"
1S
0R
16
05
0U
0T
08
07
1V
19
#540000
0"
0y
0z
1,
#550000
1"
1y
1z
0,
0="
1<"
0~!
1}!
0>"
0!"
1U
1T
1W
0V
18
17
1:
09
0S
1R
06
15
0W
1V
0Y
0X
0:
19
0<
0;
0T
07
1Y
1X
1[
0Z
1<
1;
1>
0=
0[
1Z
1\
0>
1=
1?
0\
0?
#560000
0"
0y
0z
1,
#570000
1"
1y
1z
0,
1>"
1!"
1S
0R
16
05
1T
17
#580000
0"
0y
0z
1,
#590000
1"
1y
1z
0,
1="
1~!
0>"
0!"
0U
0T
08
07
0S
1R
06
15
1W
0V
1:
09
1U
1T
18
17
0Y
0X
0<
0;
0W
1V
0:
19
1[
0Z
1>
0=
1Y
1X
1<
1;
1\
1?
0[
1Z
0>
1=
0\
0?
#600000
0"
0y
0z
1,
#610000
1"
1y
1z
0,
1>"
1!"
1S
0R
16
05
0U
0T
08
07
1W
0V
1:
09
0Y
0X
0<
0;
1[
0Z
1>
0=
1\
1?
#620000
0"
0y
0z
1,
#630000
1"
1y
1z
0,
0="
0<"
0;"
0:"
19"
0~!
0}!
0|!
0{!
1z!
0>"
0!"
1U
1T
0W
1V
1Y
1X
0[
1Z
0]
0\
18
17
0:
19
1<
1;
0>
1=
0@
0?
0S
1R
06
15
0V
0X
0Z
1]
1\
1^
09
0;
0=
1@
1?
1A
0T
07
0^
0A
#640000
0"
0y
0z
1,
#650000
1"
1y
1z
0,
1>"
1!"
1S
0R
16
05
1T
17
#660000
0"
0y
0z
1,
#670000
1"
1y
1z
0,
1="
1~!
0>"
0!"
0U
0T
08
07
0S
1R
06
15
1V
19
1U
1T
18
17
0V
09
#680000
0"
0y
0z
1,
#690000
1"
1y
1z
0,
1>"
1!"
1S
0R
16
05
0U
0T
08
07
1V
19
#700000
0"
0y
0z
1,
#710000
1"
1y
1z
0,
0="
1<"
0~!
1}!
0>"
0!"
1U
1T
1W
0V
18
17
1:
09
0S
1R
06
15
0W
1V
1X
0:
19
1;
0T
07
0X
0;
#720000
0"
0y
0z
1,
#730000
1"
1y
1z
0,
1>"
1!"
1S
0R
16
05
1T
17
#740000
0"
0y
0z
1,
#750000
1"
1y
1z
0,
1="
1~!
0>"
0!"
0U
0T
08
07
0S
1R
06
15
1W
0V
1:
09
1U
1T
18
17
1X
1;
0W
1V
0:
19
0X
0;
#760000
0"
0y
0z
1,
#770000
1"
1y
1z
0,
1>"
1!"
1S
0R
16
05
0U
0T
08
07
1W
0V
1:
09
1X
1;
#780000
0"
0y
0z
1,
#790000
1"
1y
1z
0,
0="
0<"
1;"
0~!
0}!
1|!
0>"
0!"
1U
1T
0W
1V
0Y
0X
18
17
0:
19
0<
0;
0S
1R
06
15
0V
1Y
1X
1Z
09
1<
1;
1=
0T
07
0Z
0=
#800000
0"
0y
0z
1,
#810000
1"
1y
1z
0,
1>"
1!"
1S
0R
1q
16
05
1T
17
#820000
0"
0y
0z
1,
#830000
1"
1y
1z
0,
1="
1~!
0>"
0!"
0U
0T
0q
08
07
0S
1R
06
15
1V
19
1U
1T
18
17
0V
09
#840000
0"
0y
0z
1,
#850000
1"
1y
1z
0,
1>"
1!"
1S
0R
16
05
0U
0T
08
07
1V
19
#860000
0"
0y
0z
1,
#870000
1"
1y
1z
0,
0="
1<"
0~!
1}!
0>"
0!"
1U
1T
1W
0V
18
17
1:
09
0S
1R
06
15
0W
1V
0Y
0X
0:
19
0<
0;
0T
07
1Y
1X
1Z
1<
1;
1=
0Z
0=
#880000
0"
0y
0z
1,
#890000
1"
1y
1z
0,
1>"
1!"
1S
0R
16
05
1T
17
